{
    "status": "success",
    "data": [
      {
        "id": 41,
        "data_alteracao": "2025-03-21T20:52:51.000Z",
        "event": "participante_evento",
        "description": null,
        "cod_ibge": "2302305",
        "municipio": {
          "codIbge": "2302305",
          "nome": "Bela Cruz",
          "status": "Participante",
          "badges": 0,
          "points": 0,
          "imagemAvatar": null
        }
      },
      {
        "id": 82,
        "data_alteracao": "2025-03-21T20:52:51.000Z",
        "event": "participante_evento",
        "description": null,
        "cod_ibge": "2302305",
        "municipio": {
          "codIbge": "2302305",
          "nome": "Bela Cruz",
          "status": "Participante",
          "badges": 0,
          "points": 0,
          "imagemAvatar": null
        }
      },
      {
        "id": 123,
        "data_alteracao": "2025-03-21T20:52:51.000Z",
        "event": "participante_evento",
        "description": null,
        "cod_ibge": "2302305",
        "municipio": {
          "codIbge": "2302305",
          "nome": "Bela Cruz",
          "status": "Participante",
          "badges": 0,
          "points": 0,
          "imagemAvatar": null
        }
      },
      {
        "id": 164,
        "data_alteracao": "2025-03-21T20:52:51.000Z",
        "event": "participante_evento",
        "description": null,
        "cod_ibge": "2302305",
        "municipio": {
          "codIbge": "2302305",
          "nome": "Bela Cruz",
          "status": "Participante",
          "badges": 0,
          "points": 0,
          "imagemAvatar": null
        }
      },
      {
        "id": 205,
        "data_alteracao": "2025-03-21T20:52:51.000Z",
        "event": "participante_evento",
        "description": null,
        "cod_ibge": "2302305",
        "municipio": {
          "codIbge": "2302305",
          "nome": "Bela Cruz",
          "status": "Participante",
          "badges": 0,
          "points": 0,
          "imagemAvatar": null
        }
      },
      {
        "id": 246,
        "data_alteracao": "2025-03-21T20:52:51.000Z",
        "event": "participante_evento",
        "description": null,
        "cod_ibge": "2302305",
        "municipio": {
          "codIbge": "2302305",
          "nome": "Bela Cruz",
          "status": "Participante",
          "badges": 0,
          "points": 0,
          "imagemAvatar": null
        }
      },
      {
        "id": 287,
        "data_alteracao": "2025-03-21T20:52:51.000Z",
        "event": "participante_evento",
        "description": null,
        "cod_ibge": "2302305",
        "municipio": {
          "codIbge": "2302305",
          "nome": "Bela Cruz",
          "status": "Participante",
          "badges": 0,
          "points": 0,
          "imagemAvatar": null
        }
      },
      {
        "id": 328,
        "data_alteracao": "2025-03-21T20:52:51.000Z",
        "event": "participante_evento",
        "description": null,
        "cod_ibge": "2302305",
        "municipio": {
          "codIbge": "2302305",
          "nome": "Bela Cruz",
          "status": "Participante",
          "badges": 0,
          "points": 0,
          "imagemAvatar": null
        }
      },
      {
        "id": 369,
        "data_alteracao": "2025-03-21T20:52:51.000Z",
        "event": "participante_evento",
        "description": null,
        "cod_ibge": "2302305",
        "municipio": {
          "codIbge": "2302305",
          "nome": "Bela Cruz",
          "status": "Participante",
          "badges": 0,
          "points": 0,
          "imagemAvatar": null
        }
      },
      {
        "id": 410,
        "data_alteracao": "2025-03-21T20:52:51.000Z",
        "event": "participante_evento",
        "description": null,
        "cod_ibge": "2302305",
        "municipio": {
          "codIbge": "2302305",
          "nome": "Bela Cruz",
          "status": "Participante",
          "badges": 0,
          "points": 0,
          "imagemAvatar": null
        }
      }
    ],
    "pagination": {
      "total": 410,
      "page": 0,
      "limit": 10,
      "pages": 41
    }
  }